<?xml version="1.0" encoding="utf-8"?>
<!-- Generator: Adobe Illustrator 19.0.0, SVG Export Plug-In . SVG Version: 6.00 Build 0)  -->
<svg version="1.1" id="Layer_1" xmlns="http://www.w3.org/2000/svg" xmlns:xlink="http://www.w3.org/1999/xlink" x="0px" y="0px"
	 viewBox="-1380 955.2 75 75" style="enable-background:new -1380 955.2 75 75;" xml:space="preserve">
<path d="M-1350.8,1018.5v2.3h32v-2.3H-1350.8z M-1350.8,1011.5v2.3h40v-2.3H-1350.8z M-1373.8,1009.2c-0.6,0-1,0.5-1,1.2v11.7
	c0,0.7,0.4,1.2,1,1.2h16c0.6,0,1-0.5,1-1.2v-11.7c0-0.7-0.4-1.2-1-1.2C-1357.8,1009.2-1373.8,1009.2-1373.8,1009.2z M-1350.8,995
	v2.3h32V995H-1350.8z M-1350.8,988v2.3h40V988H-1350.8z M-1373.8,985.8c-0.6,0-1,0.5-1,1.2v11.7c0,0.7,0.4,1.2,1,1.2h16
	c0.6,0,1-0.5,1-1.2v-11.8c0-0.7-0.4-1.2-1-1.2L-1373.8,985.8L-1373.8,985.8z M-1350.8,971.7v2.3h32v-2.3H-1350.8z M-1350.8,964.7
	v2.3h40v-2.3H-1350.8z M-1373.8,962.2c-0.6,0-1,0.5-1,1.2v11.7c0,0.7,0.4,1.2,1,1.2h16c0.6,0,1-0.5,1-1.2v-11.7c0-0.7-0.4-1.2-1-1.2
	H-1373.8z"/>
</svg>
